<?xml version="1.0" encoding="UTF-8"?>
<svg width="34px" height="34px" viewBox="0 0 34 34" version="1.1" xmlns="http://www.w3.org/2000/svg" xmlns:xlink="http://www.w3.org/1999/xlink">
    <title>Group 7</title>
    <g id="Desktop" stroke="none" stroke-width="1" fill="none" fill-rule="evenodd">
        <g id="Desktop-Home-Copy-2" transform="translate(-38.000000, -40.000000)">
            <g id="Header" transform="translate(5.000000, 21.000000)">
                <g id="Suche" transform="translate(35.000000, 16.000000)">
                    <g id="Group-7" transform="translate(0.000000, 5.000000)">
                        <line x1="16" y1="14" x2="0" y2="30" id="Stroke-1" stroke="#FEFEFE" stroke-width="4"></line>
                        <path d="M17.5,25 C24.4037777,25 30,19.4032851 30,12.5 C30,5.59671491 24.4037777,0 17.5,0 C10.5962223,0 5,5.59671491 5,12.5 C5,19.4032851 10.5962223,25 17.5,25" id="Fill-3" fill="#E20714"></path>
                        <path d="M17.5,25 C24.4037777,25 30,19.4032851 30,12.5 C30,5.59671491 24.4037777,0 17.5,0 C10.5962223,0 5,5.59671491 5,12.5 C5,19.4032851 10.5962223,25 17.5,25 Z" id="Stroke-5" stroke="#FEFEFE" stroke-width="3"></path>
                    </g>
                </g>
            </g>
        </g>
    </g>
</svg>